{
    "navigationBarTitleText": "购物车",
    "navigationBarBackgroundColor": "#fff",
    "usingComponents": {
        "i-card": "../../../static/iview/card/index",
        "i-tab-bar": "../../../static/iview/tab-bar/index",
        "i-tab-bar-item": "../../../static/iview/tab-bar-item/index"
    }
}
