{
    "navigationBarTitleText": "",
    "usingComponents": {
        "i-icon": "../../../static/iview/icon/index",
        "i-cell-group": "../../../static/iview/cell-group/index",
        "i-cell": "../../../static/iview/cell/index",
        "i-tab-bar": "../../static/iview/tab-bar/index",
        "i-tab-bar-item": "../../static/iview/tab-bar-item/index",
        "i-tag": "../../static/iview/tag/index"
    }
}
